…
Let’s look at dat:

dat

## # A tibble: 532 x 10
##    district sub_district sub_sub_district village_id tot_pop p_schl p_road
##       <int>        <int>            <int>      <int>   <dbl>  <dbl>  <int>
##  1        1            1                1          1  -5935.  0.361      1
##  2        2            1                1          1  -1093. -5.50       1
##  3        1            2                1          1  -1371.  0.663      0
##  4        2            2                1          1    218. 15.5        1
##  5        1            3                1          1  -6854. -4.88       1
##  6        2            3                1          1   4877. -7.11       0
##  7        1            4                1          1    212.  1.31       1
##  8        2            4                1          1  -9075.  6.04       0
##  9        1            5                1          1   8294. -4.69       1
## 10        2            5                1          1   2888. -2.48       1
## # ... with 522 more rows, and 3 more variables: town_hec <dbl>, x_cent <dbl>,
## #   y_cent <dbl>
…
## New names:
## * NA -> ...4

Let’s have a quick peek at the output to make sure it’s doing what we hope it’s doing:

investigate_cluster <- 
  dplyr::group_by(final, block) %>% 
  dplyr::summarise(count = length(block))

## `summarise()` ungrouping output (override with `.groups` argument)

investigate_cluster

## # A tibble: 106 x 2
##    block     count
##    <scclust> <int>
##  1 0             5
##  2 1             5
##  3 2             5
##  4 3             5
##  5 4             5
##  6 5             5
##  7 6             5
##  8 7             5
##  9 8             5
## 10 9             5
## # ... with 96 more rows
…
