…
Now let’s read in our data. Recall from the previous blog post that this dataset contains variables for latitude, longitude, and population (all three of which have been rescaled such that latitude and longitude have a larger weight on them), as well as block or cluster information.

# Set seed for reproducibility
set.seed(1234)

dat <- 
  tibble::as_tibble(
  readRDS(
    paste0(here::here(), "/content/kmeans_cluster_dat.rds")
    )
  )

dat

## # A tibble: 532 x 4
##    x_cent y_cent tot_pop block    
##     <dbl>  <dbl>   <dbl> <scclust>
##  1   4.73   3.78   0.332  59      
##  2   1.82   4.16   0.479  86      
##  3   6.99   3.15   0.471  54      
##  4   7.08   5.68   0.519  10      
##  5   4.37   4.80   0.304  36      
##  6   3.62   7.66   0.660 101      
##  7   3.81   5.20   0.519  75      
##  8   1.92   4.84   0.237  87      
##  9   3.02   5.65   0.764  78      
## 10   7.69   4.01   0.600  25      
## # ... with 522 more rows
…
